\BOOKMARK [1][-]{section.1}{Introduction}{}% 1
\BOOKMARK [2][-]{subsection.1.1}{Project Overview}{section.1}% 2
\BOOKMARK [2][-]{subsection.1.2}{Project Deliverables}{section.1}% 3
\BOOKMARK [1][-]{section.2}{ Project Organization}{}% 4
\BOOKMARK [2][-]{subsection.2.1}{ Software Process Model}{section.2}% 5
\BOOKMARK [2][-]{subsection.2.2}{Roles and responsibilities}{section.2}% 6
\BOOKMARK [2][-]{subsection.2.3}{ Tools and techniques}{section.2}% 7
\BOOKMARK [3][-]{subsubsection.2.3.1}{Hardware Requirements}{subsection.2.3}% 8
\BOOKMARK [3][-]{subsubsection.2.3.2}{Software Requirements}{subsection.2.3}% 9
\BOOKMARK [1][-]{section.3}{Project Management Plan}{}% 10
\BOOKMARK [2][-]{subsection.3.1}{ Tasks}{section.3}% 11
\BOOKMARK [3][-]{subsubsection.3.1.1}{Task 1: SRS \(Software Requirement Specification\) - T1}{subsection.3.1}% 12
\BOOKMARK [3][-]{subsubsection.3.1.2}{Task 2 : Software Design Document - T2}{subsection.3.1}% 13
\BOOKMARK [3][-]{subsubsection.3.1.3}{Task 3 : Code and Test - T3}{subsection.3.1}% 14
\BOOKMARK [2][-]{subsection.3.2}{ Timetable}{section.3}% 15
